website - Zeitreihenanalyse
…
gdf : Fixed weight GNP deflator.

gdfim : Fixed weight import deflator.

gdfcf : Fixed weight deflator for food in personal consumption expenditure.

gdfce : Fixed weight deflator for energy in personal consumption expenditure.

Code

Raotbl6 <- read_csv("https://raw.githubusercontent.com/selva86/datasets/master/Raotbl6.csv", show_col_types = FALSE)
Raotbl6

# A tibble: 123 × 9
   date        rgnp  pgnp   ulc gdfco   gdf gdfim gdfcf gdfce
   <date>     <dbl> <dbl> <dbl> <dbl> <dbl> <dbl> <dbl> <dbl>
 1 1959-01-01 1606. 1608.  47.5  36.9  37.4  26.9  32.3  23.1
 2 1959-04-01 1637  1622.  47.5  37.4  37.5  27    32.2  23.4
 3 1959-07-01 1630. 1636.  48.7  37.6  37.6  27.1  32.4  23.4
 4 1959-10-01 1643. 1650.  48.8  37.7  37.8  27.1  32.5  23.8
 5 1960-01-01 1672. 1665.  49.1  37.8  37.8  27.2  32.4  23.8
 6 1960-04-01 1667. 1679   49.6  38    38    27.4  32.8  23.9
 7 1960-07-01 1668. 1694.  50    38.1  38.1  27.4  32.9  24.1
 8 1960-10-01 1654. 1708.  50.2  38.2  38.2  27.2  33.2  24.2
 9 1961-01-01 1671. 1723.  50.1  38.2  38.2  27.2  33.2  24.2
10 1961-04-01 1692. 1738.  49.8  38.3  38.2  27.2  33.2  24.2
# ℹ 113 more rows
…
